vcd_files/final.vcd
$version 0.1 $end
$date 2023-02-05T11:48:48.420094 $end
$timescale 1ns $end
$scope module top $end
$var wire 1 U FIRST $end
$var wire 1 t second $end
$var wire 1 s third $end
$var wire 1 ' sd $end
$var wire 1 D Asdasd $end
$var wire 1 ( Asdkasopd $end
$var wire 1 b adkopsakda $end
$var wire 1 6 asdoaisdjas $end
$var wire 1 : ajdsaidj $end
$var wire 1 B asdkoasdjas $end
$var wire 1 ] Adkoasjdsao $end
$upscope $end
$enddefinitions $end
$dumpvars
#0 1U 0t 1s 0' 1D 1( 1b 16 1: 0B 1] 
#1 1t 0s 1' 0b 06 0: 
#2 0U 0t 1s 0( 1b 16 1B 
#3 1t 1( 0b 06 0B 
#4 1U 0t 1b 16 1B 0] 
#5 0U 1t 0s 0D 0B 1] 
#6 1U 0t 0' 1D 06 1B 
#7 0U 1s 1' 1: 0] 
#8 1U 0s 0( 16 0: 
#9 0U 1t 1( 06 1: 1] 
#10 1s 0( 0b 16 0: 0B 0] 
#11 1U 0s 0D 1( 1] 
#12 0t 1s 0' 0( 1b 1: 1B 0] 
#13 0U 1t 0s 1' 06 0: 1] 
#14 0t 0' 0b 16 0B 
#15 1t 1D 06 1B 
#16 0t 1s 1( 1: 0B 0] 
#17 1U 1t 0( 1b 16 1] 
#18 0U 0s 0D 1( 0b 06 1B 0] 
#19 1U 1b 16 0: 0B 
#20 0( 0b 1] 
#21 0U 0t 1' 1D 1b 06 0] 
#22 1U 1( 0b 1: 1B 
#23 0U 0' 0( 16 0: 
#24 1U 1t 1s 06 0B 
#25 0U 0t 1' 0D 1( 1: 1B 
#26 1t 0s 16 
#27 1U 0t 1s 1D 0( 1b 06 
#28 1t 1( 16 
#29 0t 0s 0' 0: 0B 1] 
#30 1t 1' 0D 0b 0] 
#31 0U 0t 0' 0( 1b 06 
#32 1U 1t 1' 1D 1( 0b 1: 
#33 0U 0t 0: 1] 
#34 1t 1s 0D 0( 16 1B 0] 
#35 0t 0s 0' 1: 0B 
#36 1t 1' 06 0: 1B 
#37 0' 16 1: 0B 1] 
#38 1U 0t 1s 1' 1b 06 0: 1B 
#39 0U 1t 0' 1D 1( 0b 16 1: 0B 0] 
#40 1U 0t 0( 0: 1B 1] 
#41 0U 1t 0s 1' 1( 1b 06 0] 
#42 1U 0t 1s 0' 0b 16 0B 
#43 1t 0s 0( 1b 06 1B 
#44 0U 1s 1' 1( 1: 0B 
#45 0t 0' 0D 0( 0b 1B 
#46 0s 1( 1] 
#47 1t 1s 1D 1b 16 
#48 1U 0t 1' 0D 0b 06 0: 0B 
#49 0U 0' 1D 16 1B 0] 
#50 1t 0D 1b 1: 
#51 1U 0( 0: 1] 
#52 0s 1' 0B 
#53 0U 1s 0' 1D 1( 06 1: 1B 
#54 1U 0D 0( 16 0B 
#55 0U 0t 0s 1D 1( 1B 0] 
#56 1t 1' 0: 1] 
#57 1U 0' 0D 0] 
#58 1s 1D 0b 06 1: 1] 
#59 0D 0( 16 0: 0B 
#60 0t 1' 0] 
#61 0U 1b 1B 
#62 1U 1t 0s 1D 0b 1: 
#63 0t 0' 0D 1( 0B 1] 
#64 0U 1s 0( 06 0] 
#65 1t 1D 0: 1B 
#66 0t 1' 0D 1( 16 1: 1] 
#67 1U 1t 0s 1b 06 0: 0] 
#68 0t 1s 1D 0b 16 1: 0B 1] 
#69 0' 1b 06 0: 
#70 1t 0s 16 1: 1B 
#71 0t 1s 1' 0D 0b 0B 0] 
#72 0U 1t 0' 1D 1b 06 1B 1] 
#73 1U 0t 0: 
#74 0U 1t 0s 1' 0D 0b 16 
#75 0t 1s 06 1: 0] 
#76 1U 1t 0' 1D 16 0: 
#77 0U 0t 0s 0D 1b 1: 
#78 1U 1t 1' 0b 06 0B 
#79 16 0: 1B 
#80 0U 0t 0' 0( 1] 
#81 1U 1t 1D 1: 0] 
#82 0t 1s 1' 06 0: 0B 
#83 0U 1t 0D 1( 1B 
#84 1U 0s 1D 0( 1b 1: 0B 1] 
#85 0U 0' 0b 1B 
#86 0t 1' 0D 1b 0] 
#87 1U 1( 0b 16 
#88 1s 0' 1D 0( 06 0: 0B 
#89 0s 1' 1b 16 1: 1] 
#90 0U 1t 1s 0D 1( 0: 1B 
#91 0' 0( 1: 0] 
#92 1U 0t 0s 1( 06 0B 1] 
#93 0U 1t 1D 0( 1B 
#94 0t 1' 0D 1( 16 
#95 1s 0' 1D 0B 
#96 0s 1' 06 
#97 1s 0( 0b 16 0] 
#98 1U 0' 1( 1B 1] 
#99 1t 0s 1b 0: 0] 
#100 0U 1s 0D 0b 0B 
#101 1U 0t 1D 0( 1b 06 1: 1B 
#102 0s 1( 0B 1] 
#103 0U 1s 0D 0b 16 0: 1B 0] 
#104 1U 1' 1D 0( 1: 0B 
#105 1t 0' 1b 1B 1] 
#106 0t 1' 0D 1( 0b 0] 
#107 1t 0' 0( 1b 06 0: 0B 1] 
#108 0U 1' 1D 16 1: 
#109 1U 0t 0' 0: 0] 
#110 1t 1' 0D 1( 06 1: 1] 
#111 0t 0s 16 1B 0] 
#112 0U 1t 1s 0' 1D 0: 1] 
#113 0s 0( 06 0B 0] 
#114 1U 0t 0D 1( 16 1] 
#115 1t 06 1: 1B 0] 
#116 1D 0: 0B 1] 
#117 0U 0t 1s 1' 0D 0( 0b 16 1: 
#118 1U 0s 0' 1D 1( 1b 06 1B 0] 
#119 0U 1t 1s 0D 0b 16 0: 1] 
#120 0s 1D 1b 06 0B 0] 
#121 1U 0t 1' 0D 0b 16 1: 
#122 0U 0' 0( 1b 0: 1B 1] 
#123 1t 1s 1D 1( 0b 06 1: 0B 
#124 1U 0t 0D 0: 1B 
#125 1b 16 1: 0] 
#126 1t 0s 1D 0b 06 0: 0B 1] 
#127 0U 0t 1s 0( 1B 
#128 1U 1t 0s 1b 16 1: 
#129 0t 1s 1' 0D 1( 0: 0] 
#130 0s 0' 1D 0( 1: 0B 1] 
#131 0U 0D 1( 06 0: 1B 0] 
#132 1' 0b 1: 
#133 1t 0' 0( 0: 
#134 0t 1s 1( 1b 1: 0B 
#135 1U 1t 0s 1' 0( 0b 16 0: 1B 1] 
#136 0U 0' 1D 
#137 0t 1b 0B 
#138 1' 0D 0b 1B 
#139 1U 1t 0' 1D 1( 1b 0] 
#140 0t 1s 06 1: 0B 1] 
#141 1t 1' 0D 0( 16 0: 
#142 0U 0t 0s 1D 1( 0b 
#143 1U 1t 0D 0( 1: 
#144 0U 0t 1s 0' 1b 1B 
#145 1t 0s 1D 1( 0: 0B 0] 
#146 1U 0t 1s 1' 0D 0b 1B 1] 
#147 0U 1D 1b 06 0B 0] 
#148 0' 0( 16 1: 
#149 1t 1' 1( 0: 1B 1] 
#150 0s 0' 0( 0b 1: 0] 
#151 1( 1b 0B 1] 
#152 1U 1s 1' 0( 
#153 0t 0s 0' 
#154 1t 0D 1( 06 
#155 0U 0t 1s 1' 0b 0: 
#156 0s 0( 1b 1: 
#157 1t 1s 1D 0b 16 0: 1B 0] 
#158 1U 0t 0s 0' 1( 0B 1] 
#159 1t 1s 1b 0] 
#160 0t 1' 0b 1B 1] 
#161 0U 0s 0D 1b 06 1: 
#162 1t 1s 1D 16 0: 
#163 1U 0s 0' 0b 06 0] 
#164 0U 1s 1' 0D 0( 1b 16 0B 
#165 0t 0' 0b 1: 1B 
#166 1t 1' 1b 1] 
#167 0b 0: 0B 0] 
#168 0t 0s 0' 1( 
#169 1U 1' 1b 1] 
#170 0U 0' 1D 0( 0b 1B 0] 
#171 1U 1' 0D 1( 1b 06 0B 1] 
#172 0U 1s 1D 0( 16 
#173 0s 0D 1( 1: 0] 
#174 0' 1D 0( 06 1] 
#175 1t 1s 1' 1( 0b 16 0: 
#176 1U 0t 0s 0( 06 
#177 0U 1t 1s 1( 1B 0] 
#178 0s 0' 0D 0( 1b 16 1: 1] 
#179 1U 0t 1D 1( 0b 06 0: 
#180 0( 16 1: 0B 0] 
#181 0U 1' 1( 06 
#182 1U 1t 0' 0D 0( 0: 1] 
#183 0U 0t 1( 
#184 1s 16 1B 
#185 1t 0s 1D 1b 06 1: 
#186 1U 0t 1s 1' 0( 16 0B 0] 
#187 0' 0D 1( 1B 
#188 1t 1' 0b 0B 
#189 0U 0t 1D 0( 1b 0: 
#190 1t 0s 1] 
#191 1U 1s 0' 0D 0b 06 1: 1B 
#192 0t 0s 0B 0] 
#193 0U 1t 1s 1' 1( 16 0: 1B 1] 
#194 1U 0( 06 
#195 0U 1D 1( 16 1: 0] 
#196 0t 0' 0D 
#197 1' 0B 
#198 1t 0s 0( 1b 06 0: 1B 1] 
#199 1s 0' 1D 0] 
#200 1U 0t 0s 1' 0D 1( 
#201 0U 0( 0b 0B 1] 
#202 1t 1b 16 1: 1B 0] 
#203 1U 0: 0B 1] 
#204 0' 1D 1( 1: 0] 
#205 0U 0D 06 1] 
#206 1' 16 0: 
#207 1U 1D 0( 06 1B 
#208 0t 0b 16 1: 0B 
#209 1s 0' 1( 1b 0: 
#210 1t 1' 0D 06 1: 1B 0] 
#211 0s 1D 0b 0B 
#212 0U 0t 0D 0( 16 1] 
#213 1t 1D 06 0: 
#214 1U 0t 0D 1b 16 
#215 0U 0' 1( 
#216 1U 1t 1D 0( 0b 06 1B 0] 
#217 0U 1s 1b 16 1: 0B 
#218 0s 0D 1( 06 0: 1B 
#219 1s 1D 0b 0B 
#220 1U 0t 0s 1' 0D 1] 
#221 0U 1t 1s 0' 1D 0( 16 0] 
#222 0t 0s 1( 06 1: 1] 
#223 1' 1b 16 0: 1B 
#224 1t 0' 0b 06 1: 
#225 1U 0( 16 0B 
#226 1' 0D 1( 1b 06 1B 0] 
#227 0U 0' 1D 16 0B 1] 
#228 0t 1s 06 0: 1B 0] 
#229 1U 1t 0s 0( 0b 16 0B 1] 
#230 1' 1( 1b 06 1B 
#231 0U 0t 1s 0' 0D 0( 0b 16 1: 0] 
#232 1U 1t 1D 1b 06 
#233 0U 0t 0B 
#234 1U 0s 1' 0b 16 1] 
#235 0' 1( 06 1B 
#236 1s 1' 0D 1b 0B 
#237 0s 1D 0b 16 0: 0] 
#238 0U 1s 0( 06 1: 
#239 0s 1( 16 0: 
#240 1U 1s 0D 
#241 0U 1t 0s 0' 1D 0( 1b 1: 1B 1] 
#242 1s 0D 0b 0B 
#243 1U 1' 1b 1B 
#244 0U 0s 
#245 0' 1( 06 0B 0] 
#246 1U 0t 1s 16 0: 1B 
#247 1t 1' 0( 0b 06 1: 0B 1] 
#248 0t 0s 0' 16 0] 
#249 0U 1t 1' 1( 1b 1B 
#250 1s 0' 0( 0b 06 
#251 0t 1( 16 0B 
#252 1U 0s 1' 06 1] 
#253 1t 0' 1D 0( 1b 16 1B 0] 
#254 0U 1s 0D 1( 06 0: 0B 
#255 0t 0s 1D 0( 16 1: 1] 
#256 1U 1' 0D 1( 0b 0] 
#257 0U 1D 1b 06 1B 1] 
#258 1t 1s 0' 0( 0b 0] 
#259 1U 1' 0D 1( 16 
#260 0t 0s 0' 1b 06 1] 
#261 1s 0b 16 0B 
#262 0s 1b 06 0: 1B 0] 
#263 1s 1D 0( 16 1] 
#264 0U 0s 1( 06 1: 0B 0] 
#265 1U 0D 0: 1B 1] 
#266 1t 1D 0( 1: 0B 0] 
#267 0t 1s 1( 16 0: 1B 1] 
#268 0U 1t 0s 0D 06 1: 
#269 1U 1D 0b 0: 0B 0] 
#270 0t 1s 0( 1: 1] 
#271 1t 0s 0D 0: 1B 
#272 0U 0t 1' 1( 0B 0] 
#273 1s 0( 1b 1B 1] 
#274 1U 0' 1D 1( 0b 16 0B 
#275 1' 0D 06 1: 1B 0] 
#276 0U 0' 1D 1] 
#277 1U 0s 1' 0( 1b 16 
#278 1s 0' 0D 0B 0] 
#279 1t 0s 1D 1( 0b 06 0: 1] 
#280 0t 1s 0D 0( 1: 1B 
#281 0U 0s 1' 1D 1( 1b 16 0] 
#282 0b 0: 1] 
#283 1U 0' 0D 06 1: 
#284 0U 1t 1s 1' 0( 1b 16 0: 
#285 1U 0t 1D 06 1: 0B 0] 
#286 0U 1t 0D 1( 16 1B 1] 
#287 1U 0t 0' 1D 0( 0: 0B 0] 
#288 0U 1' 0D 0b 1: 1B 1] 
#289 1t 1D 1( 0: 0B 0] 
#290 1U 0' 0D 1b 06 1] 
#291 0U 0t 0b 1B 
#292 1U 1D 0] 
#293 1t 0s 16 1] 
#294 1s 1b 1: 0B 
#295 0U 0t 0( 06 0: 1B 
#296 1' 0D 0b 1: 0] 
#297 1t 0' 16 0: 
#298 0t 1' 1b 06 0B 
#299 1t 0s 1( 0b 1: 1B 
#300 1U 0t 0' 1D 0( 0: 0B 1] 
#301 1s 1( 16 1B 
#302 1t 0( 1b 1: 0B 
#303 0t 0s 0D 0b 0: 
#304 1t 06 
#305 0U 1s 16 0] 
#306 1U 0s 1b 
#307 0t 1s 1' 1D 1: 1B 1] 
#308 0U 0s 0' 1( 0: 0B 0] 
#309 1U 1s 1' 0D 0( 06 1: 
#310 0s 0' 1( 16 0: 
#311 0U 1s 1D 0( 0b 1] 
#312 1U 0s 1' 0D 1b 1B 
#313 0U 1t 0b 06 1: 
#314 0t 1s 1D 1( 16 0B 0] 
#315 1U 0( 0: 1] 
#316 0U 1t 0D 06 1: 
#317 1U 
#318 0t 0s 0: 1B 
#319 0U 1t 1D 1( 1b 1: 0] 
#320 1U 0t 0D 0( 0b 16 1] 
#321 0U 1t 1b 0B 
#322 1U 0t 1D 1( 0: 1B 0] 
#323 1t 0' 0( 1] 
#324 0t 1s 0D 0b 1: 
#325 0U 1t 0s 1b 06 0B 0] 
#326 0t 1s 16 0: 
#327 1U 1t 0s 1' 1( 0b 1] 
#328 0U 0' 1D 0( 1B 0] 
#329 1s 1' 1( 06 0B 1] 
#330 0t 0s 0' 0D 16 1: 0] 
#331 1U 1s 0( 1] 
#332 1' 1D 1( 1b 0] 
#333 0s 0' 0D 0( 0b 1B 
#334 1t 1s 1' 1D 06 1] 
#335 0U 0' 0D 1( 1b 0: 
#336 1U 1D 0( 16 1: 
#337 0s 1' 0D 1( 0b 0B 0] 
#338 1s 0' 0( 06 0: 1B 
#339 0t 0s 1b 16 
#340 1t 1s 1( 1: 1] 
#341 0t 1D 0b 0] 
#342 0U 1t 0D 1b 06 0B 1] 
#343 0t 1' 0( 0: 1B 
#344 1U 1t 0s 0' 1D 1( 0b 16 0] 
#345 0U 1s 0D 0B 1] 
#346 1D 0( 1b 1: 
#347 1U 06 0] 
#348 0t 1' 1( 1] 
#349 0s 0' 0( 16 
#350 0U 1t 1s 1' 0D 0b 
#351 1U 0t 0' 1D 1( 0: 
#352 0U 1t 1' 0( 1b 06 1: 
#353 1U 0' 0b 
#354 0s 16 0: 
#355 0t 1s 0D 1( 1: 1B 0] 
#356 1D 06 0: 1] 
#357 0U 1t 0s 0( 1b 16 0B 
#358 0t 1' 1( 0b 1: 0] 
#359 1t 0( 1b 0: 
#360 1s 0D 06 1: 
#361 1U 0' 1D 0b 16 1] 
#362 0U 0s 1' 0D 1( 
#363 1U 1s 0' 1D 06 1B 
#364 0U 0t 1' 0( 16 0B 
#365 1( 0: 
#366 1U 1t 0' 0D 0( 1: 0] 
#367 1' 1D 1b 0: 1B 1] 
#368 0U 0t 0s 0' 06 1: 0B 
#369 1' 0b 16 0: 0] 
#370 1U 1t 1b 1: 1B 1] 
#371 0U 1s 0b 0B 0] 
#372 1U 0t 0s 1b 06 
#373 0U 1t 1s 0D 0b 0: 1] 
#374 1U 0t 0' 1b 
#375 1D 1( 16 1B 
#376 1' 0D 0( 0b 06 
#377 1t 0s 1D 1( 16 0B 0] 
#378 0U 1s 0D 1b 1] 
#379 1U 0t 0' 0( 06 1: 1B 
#380 0s 1D 16 0] 
#381 1s 0D 1( 0: 0B 
#382 0U 1t 1' 
#383 1U 0t 0' 1D 06 1B 
#384 0U 1t 0s 0D 16 1] 
#385 1U 0t 1D 0b 1: 0B 
#386 1s 1b 06 0: 0] 
#387 0s 1' 0( 1] 
#388 0U 1s 0' 1( 16 1B 0] 
#389 1t 0s 1' 0D 0( 0b 1] 
#390 1U 1s 0' 1( 1: 0] 
#391 0U 0t 1' 1D 1b 0: 0B 1] 
#392 1U 1t 0' 0( 06 0] 
#393 1' 0D 0b 16 1: 1B 
#394 0U 0t 0s 1D 
#395 1U 0' 1b 0: 1] 
#396 0U 1t 1s 1( 0b 0] 
#397 1U 0t 0s 1' 0D 0B 
#398 1s 1D 1b 06 1: 
#399 0U 0s 0' 0D 0( 16 
#400 1U 1t 1s 1' 1D 1( 06 0: 1B 
#401 0t 0D 1] 
#402 0s 0' 1D 0( 0b 16 0] 
#403 0U 1s 1' 0D 1( 0B 1] 
#404 0s 0' 1D 06 1: 1B 
#405 0D 
#406 1U 1s 0( 1b 16 0: 0B 0] 
#407 1t 0s 1' 1D 0b 1B 1] 
#408 0t 1s 1( 1b 1: 
#409 1t 0D 0b 0B 0] 
#410 0U 0s 0' 1D 0( 1b 06 0: 
#411 1s 0D 1: 1] 
#412 1U 0t 0s 1D 1( 0b 0: 1B 0] 
#413 1s 0D 16 0B 1] 
#414 0( 1: 
#415 0U 1t 0s 1' 1( 0: 1B 0] 
#416 1U 1s 0' 1D 0( 1b 1: 1] 
#417 0U 0t 0s 1' 1( 0b 06 
#418 1U 1t 1s 0' 1b 16 0: 0B 0] 
#419 0U 0( 1: 
#420 0t 0s 1' 1( 06 0: 1B 
#421 0' 16 0B 1] 
#422 1U 1s 1' 0D 1: 
#423 0U 1t 0( 06 0] 
#424 1U 0t 0s 1D 1( 0b 16 0: 1] 
#425 1b 0] 
#426 0U 1t 1s 0( 1: 1B 
#427 0t 0s 0' 06 
#428 1s 1' 0D 16 0B 
#429 1t 0' 1D 0b 0: 1] 
#430 1U 0t 0D 1( 1b 1: 
#431 0s 0b 06 0: 1B 
#432 0U 1t 1s 1' 1D 1b 16 
#433 1U 0( 0b 06 1: 
#434 0s 1b 0: 0B 0] 
#435 0U 0t 1s 0' 0D 0b 16 1: 1] 
#436 1U 1t 0s 1' 1( 1b 06 1B 0] 
#437 0U 0t 0( 0b 16 0: 1] 
#438 1U 1t 0' 1b 06 0B 0] 
#439 0U 1' 1D 1] 
#440 0D 0b 0] 
#441 1U 0t 1s 1D 1( 1b 16 1: 1] 
#442 0U 1t 0' 0D 06 0: 1B 
#443 1D 
#444 1U 0t 0s 1' 0D 0( 16 0] 
#445 0' 1D 1: 1] 
#446 1t 1s 1( 0b 06 0] 
#447 1' 1b 
#448 0U 0t 0' 0D 0( 0B 
#449 1U 1' 1( 0: 1B 1] 
#450 1t 0s 16 1: 0B 0] 
#451 1s 0' 1D 0: 1B 
#452 0U 0B 1] 
#453 1U 0t 1' 0D 0b 1B 
#454 1t 0s 0' 0( 1b 06 
#455 0t 1s 1' 1( 0b 16 0B 0] 
#456 0U 0s 0' 1D 1B 1] 
#457 1U 1t 1s 1' 0D 1b 06 1: 0B 
#458 0t 1D 0b 0] 
#459 0U 1t 0s 0' 1b 0: 1B 
#460 1U 0t 1s 0( 0B 
#461 1t 0s 0D 1( 16 1B 
#462 0t 1s 1' 1D 0b 06 1: 0B 1] 
#463 0s 0' 
#464 0U 1t 1' 0( 16 1B 
#465 1U 1s 0D 1( 1b 0] 
#466 0s 0' 1D 0( 06 
#467 1' 1( 16 0B 
#468 0U 1s 0' 0( 06 0: 
#469 0t 0D 
#470 1U 1( 0b 1: 1B 1] 
#471 0U 0s 1' 0( 16 0] 
#472 1U 1s 0' 1( 1b 1] 
#473 0s 1' 1D 0( 0b 0: 
#474 0U 1t 0D 1( 06 1: 0B 
#475 0t 0' 1D 1b 16 0: 1B 
#476 1U 1t 1s 1' 0( 
#477 0D 0b 0B 0] 
#478 0U 0s 0' 1D 1( 1: 1B 
#479 1U 0D 0( 1b 0B 
#480 1D 1B 
#481 0U 0t 1' 1( 1] 
#482 1t 1s 0D 06 0: 0B 
#483 0t 0' 0( 0b 16 1: 
#484 1t 0s 1' 1( 1b 0: 
#485 1U 1D 0b 06 
#486 0U 1s 16 1: 0] 
#487 0t 0D 1b 0: 
#488 1t 0b 06 1: 1B 1] 
#489 0t 0s 1b 0: 0] 
#490 1t 1s 0' 0b 16 1: 
#491 1U 0s 1' 1D 0( 1b 06 0: 0B 
#492 0t 0' 1] 
#493 0b 16 1: 0] 
#494 1( 0: 1B 1] 
#495 0U 1' 0D 0B 0] 
#496 1t 0' 0( 1: 
#497 0t 1' 1D 1( 06 0: 1B 1] 
#498 0' 1: 
#499 1U 1t 1s 1' 0D 1b 0] 
#500 0' 1D 16 
#501 0U 0t 0s 0( 06 0: 
#502 0D 0b 16 
#503 1s 1' 1] 
#504 1U 1t 1D 1b 06 0] 
#505 0U 0D 1( 0B 1] 
#506 1U 0' 0( 0b 16 1: 0] 
#507 0U 0s 1D 1b 1B 
#508 1( 06 0B 1] 
#509 1U 0t 1' 0( 0b 16 1B 0] 
#510 0U 1t 1s 1b 06 0: 0B 1] 
#511 0t 0s 0' 1( 0b 1: 1B 0] 
#512 0D 0( 1b 0: 1] 
#513 1U 1s 1' 1( 0b 16 0B 
#514 0U 1D 0( 1b 06 1B 
#515 1U 0s 1( 1: 0] 
#516 0' 0b 0: 
#517 0U 1' 0( 16 
#518 0D 1b 1: 
#519 1t 1s 1D 0b 06 0: 0B 1] 
#520 1U 0t 0s 0D 1b 16 1: 1B 0] 
#521 1t 1s 1( 0b 0: 
#522 0U 0t 0s 0' 1D 
#523 0D 06 1: 1] 
#524 1s 1' 1D 0: 0] 
#525 1U 1b 16 1: 0B 
#526 0U 1t 0' 0D 0( 0b 1] 
#527 0t 0s 1b 06 1B 0] 
#528 1U 1s 1' 1D 0b 16 0B 
#529 0U 1t 0s 0' 0D 1( 
#530 1U 0t 1D 0: 1B 1] 
#531 0U 1t 1' 0( 06 0] 
#532 0t 0' 1( 1b 16 1] 
#533 1s 1' 0D 0( 1: 0B 0] 
#534 1t 0s 0' 06 1] 
#535 0t 1' 1D 0b 
#536 1s 0' 1B 
#537 1U 1t 1' 16 0: 0B 
#538 0U 0' 0D 1( 1b 06 1: 0] 
#539 1U 0t 1' 1D 0( 16 0: 
#540 0D 1B 1] 
#541 0U 1t 1D 0b 06 1: 0B 
#542 1U 0t 0s 0' 1( 16 
#543 1t 1s 06 1B 0] 
#544 0U 0t 0( 16 0: 
#545 1t 1' 1( 1b 06 
#546 1U 0t 16 
#547 0U 1t 0D 0( 1] 
#548 0' 06 1: 0B 0] 
#549 0s 1D 1( 16 1B 1] 
#550 1U 1s 1' 0D 0( 06 0] 
#551 0U 0t 0' 1D 0b 1] 
#552 1b 0B 
#553 1t 0s 1' 1( 16 0: 1B 
#554 0' 0( 06 
#555 1s 1( 0B 0] 
#556 1' 0( 0b 1: 1] 
#557 1U 0t 0D 1( 16 0: 0] 
#558 0U 0' 1b 06 1B 1] 
#559 1U 1t 0s 1' 0( 0B 0] 
#560 1D 1( 
#561 0U 0D 0( 0b 1: 1] 
#562 0t 1( 1b 0: 0] 
#563 1t 0' 1D 1] 
#564 0t 1' 0( 0b 16 1B 
#565 1s 0' 0D 
#566 1t 0s 1' 1D 1b 06 1: 0B 
#567 1U 0' 0D 1( 0b 16 0: 1B 0] 
#568 1s 1D 06 
#569 0t 0s 0( 1b 
#570 0U 1s 0D 1( 0b 16 1: 
#571 1U 0s 1D 0( 1b 0: 1] 
#572 0b 06 1: 0] 
#573 0U 1s 1' 1( 0: 
#574 1t 0s 0D 0( 16 0B 1] 
#575 1s 1D 1( 1b 0] 
#576 1U 0t 0s 0( 0b 06 1B 1] 
#577 0U 1s 0' 16 
#578 1U 1' 0D 1b 06 
#579 0U 0' 1( 1: 0B 
#580 1D 0: 1B 0] 
#581 1U 1t 0s 0D 0b 1: 
#582 16 0: 0B 
#583 1s 1' 1D 1b 06 1] 
#584 0t 0s 0' 0b 16 1: 1B 
#585 0U 1t 1s 1' 0] 
#586 0t 0' 0D 1b 06 0B 1] 
#587 1U 1t 0s 1D 0( 0b 16 0] 
#588 0t 06 0: 1B 1] 
#589 0U 1s 1' 0D 1b 16 1: 0B 0] 
#590 1U 0' 1D 1( 0b 
#591 1t 0s 0D 0( 06 0: 1B 
#592 0U 0t 1s 1D 1( 
#593 1U 1t 0s 0D 1: 1] 
#594 0U 1D 0] 
#595 0D 0( 1b 1] 
#596 0t 1s 1' 1D 16 0: 0B 0] 
#597 1U 0s 0' 0b 
#598 0U 1' 0D 1( 06 1: 1B 
#599 1U 16 0: 
#600 1t 1s 1D 0( 1b 1] 
#601 0s 0D 1( 06 1: 
#602 0' 1D 0b 0: 0B 0] 
#603 0t 1s 1b 1] 
#604 0D 0( 16 1: 0] 
#605 0b 1B 
#606 0U 1t 0s 1' 1D 0: 0B 1] 
#607 0' 0D 06 0] 
#608 1U 16 1: 1] 
#609 0t 1' 1D 1( 1b 0: 0] 
#610 1t 0' 0( 0b 06 1: 1B 
#611 0t 1s 1' 0D 1( 0: 
#612 0U 1t 0' 1D 0( 16 0B 
#613 0t 0D 1b 06 1B 1] 
#614 1' 1D 1( 16 
#615 1t 0' 0D 06 1: 0B 0] 
#616 1' 0( 16 0: 1B 
#617 1U 0s 0' 1D 1( 0b 0B 
#618 0U 0D 1: 
#619 1s 1' 0( 1b 0: 1B 
#620 0t 0' 1( 06 1: 1] 
#621 1t 0s 1D 0b 16 0: 0B 
#622 1U 0t 0D 1b 1: 0] 
#623 1s 1' 0b 06 
#624 0U 1t 1D 1b 0: 1B 1] 
#625 1U 0' 0D 0( 0B 0] 
#626 0t 0s 1' 1( 1] 
#627 1D 0b 16 0] 
#628 0U 1t 1s 0' 06 1B 
#629 1U 0t 0s 0B 1] 
#630 1t 1s 
#631 0U 0t 0( 1b 16 0] 
#632 0s 1' 0D 1( 06 1: 
#633 1t 1s 0' 0( 1] 
#634 0t 0s 1' 1D 0b 0] 
#635 1U 1t 0' 1( 16 0: 1B 1] 
#636 0U 0t 0( 1b 0B 
#637 1U 1t 1' 0D 1( 0] 
#638 0U 1s 1D 0( 06 1B 1] 
#639 0t 0D 1: 0] 
#640 1t 0s 1D 1( 0b 0: 0B 1] 
#641 1U 0t 1s 0D 0( 1B 0] 
#642 0U 1t 0s 0' 1D 1b 16 0B 
#643 0t 1s 
#644 1U 1' 06 
#645 0U 1t 0D 0b 16 1: 1B 1] 
#646 1U 0t 1D 1( 0B 0] 
#647 0s 0' 0( 1b 06 0: 
#648 1t 1s 1' 0D 1( 16 1B 
#649 0U 0t 0s 1D 0( 0b 06 1: 0B 1] 
#650 1U 1b 16 1B 0] 
#651 0U 0' 0b 0: 
#652 1s 1' 0D 1] 
#653 1U 1t 0' 1D 1( 1b 06 0] 
#654 0U 0s 0D 0( 16 1] 
#655 0t 1' 1D 0b 06 1: 0B 
#656 1U 1t 0D 1b 
#657 0t 1s 0' 1D 16 1B 
#658 0U 1' 1( 0b 0B 
#659 1U 1t 0s 0D 0( 06 0] 
#660 0U 0t 1s 1b 1B 
#661 1t 1( 16 
#662 1U 1D 0( 06 0: 0B 1] 
#663 0s 0D 1( 0b 16 1B 0] 
#664 0U 0t 1s 0' 1D 06 1] 
#665 1U 1t 1b 16 1: 0B 
#666 0t 0s 1' 0D 0: 1B 
#667 0b 1: 0B 0] 
#668 0U 0' 1D 0( 06 1] 
#669 0D 1( 16 
#670 1U 0( 1B 0] 
#671 1' 1b 0: 0B 1] 
#672 0' 1D 0b 06 1B 
#673 0U 1t 1( 0] 
#674 1U 0D 1b 1] 
#675 0t 1s 0b 1: 0] 
#676 0s 0( 
#677 1t 1D 16 1] 
#678 0U 1s 1' 0D 1b 0: 
#679 0' 1: 0] 
#680 1' 1D 1( 06 0: 0B 1] 
#681 1U 0' 0D 16 1: 1B 
#682 0B 
#683 0t 0( 0: 1B 
#684 1D 06 0B 
#685 1t 0s 1' 0D 0b 1B 0] 
#686 0U 1s 0' 1( 16 0B 
#687 0t 0s 1' 1D 0( 1b 1B 
#688 1s 0' 0D 0b 06 1] 
#689 1t 0s 1b 16 1: 0B 0] 
#690 1U 1s 1' 1B 1] 
#691 0s 0' 1( 0B 0] 
#692 0: 1B 
#693 0U 1s 1' 0( 0B 1] 
#694 0t 0s 06 1: 1B 
#695 1D 0b 0: 
#696 1s 0' 1b 0B 0] 
#697 1t 0D 1( 0b 1B 
#698 0t 0s 1D 1b 1: 
#699 1' 0: 1] 
#700 1U 1s 0D 0b 
#701 0U 1t 0' 16 
#702 1U 0t 0( 1b 06 1: 0B 
#703 0U 1D 0b 16 0: 0] 
#704 1t 1' 1( 1b 1: 
#705 1U 0t 0D 0b 0: 1B 1] 
#706 1t 0' 06 
#707 1' 1D 1b 16 1: 
#708 0s 0: 0B 
#709 0U 1s 0( 1: 1B 
#710 1U 0s 0' 0b 06 0: 0] 
#711 1( 16 1: 0B 
#712 0U 1s 0D 1B 
#713 1U 0s 0( 0: 0B 1] 
#714 0t 1s 1D 1( 06 
#715 0U 1t 0s 1' 1b 16 0] 
#716 1U 0t 0' 0( 0b 06 1: 
#717 0U 1s 1( 1b 16 0: 1B 
#718 1t 1' 0D 1: 
#719 0t 0' 0b 0B 
#720 1U 1t 0s 1D 0( 06 1B 
#721 1s 1' 1( 1b 0: 
#722 0' 0D 0b 1: 
#723 0t 0s 0( 1b 16 0: 0B 
#724 0U 1t 1' 1( 1] 
#725 1U 1s 0' 0b 1B 0] 
#726 0t 1D 1b 1: 1] 
#727 0U 0s 0( 
#728 0D 1( 0b 0] 
#729 1D 06 0B 
#730 1t 1' 0( 1b 1] 
#731 0t 1s 0' 0D 1B 0] 
#732 1( 0B 1] 
#733 0s 1D 0: 0] 
#734 1s 0( 16 
#735 1U 1t 1' 0D 0b 1: 1B 
#736 1( 1b 1] 
